<?xml version="1.0" encoding="UTF-8"?>
<robot generator="Robot 4.1 (Python 3.9.6 on win32)" generated="20210820 16:01:02.973" rpa="false" schemaversion="2">
<suite id="s1" name="Tests" source="c:\Tools\Dashboard\Grupo Fiscal\tests">
<suite id="s1-s1" name="Grupo-Fiscal" source="c:\Tools\Dashboard\Grupo Fiscal\tests\grupo-fiscal.robot">
<test id="s1-s1-t1" name="Novo cadastro de grupo fiscal">
<kw name="Start Session" library="base" type="SETUP">
<kw name="New Browser" library="Browser">
<arg>chromium</arg>
<arg>headless=false</arg>
<tag>BrowserControl</tag>
<tag>Setter</tag>
<doc>Create a new playwright Browser with specified options.
See `Browser, Context and Page` for more information about Browser and related concepts.</doc>
<msg timestamp="20210820 16:01:03.772" level="INFO">{"browser": "chromium", "headless": false, "handleSIGINT": true, "handleSIGTERM": true, "handleSIGHUP": true, "timeout": 30000.0, "devtools": false, "slowMo": 0.0}</msg>
<msg timestamp="20210820 16:01:04.129" level="INFO">Successfully created browser with options: {"browser":"chromium","headless":false,"handleSIGINT":true,"handleSIGTERM":true,"handleSIGHUP":true,"timeout":30000,"devtools":false,"slowMo":0}</msg>
<status status="PASS" starttime="20210820 16:01:03.772" endtime="20210820 16:01:04.129"/>
</kw>
<kw name="New Context" library="Browser">
<arg>viewport={'width': 1366, 'height': 768}</arg>
<tag>BrowserControl</tag>
<tag>Setter</tag>
<doc>Create a new BrowserContext with specified options.
See `Browser, Context and Page` for more information about BrowserContext.</doc>
<msg timestamp="20210820 16:01:04.130" level="INFO">{"acceptDownloads": false, "ignoreHTTPSErrors": false, "bypassCSP": false, "viewport": {"height": 768, "width": 1366}, "deviceScaleFactor": 1.0, "isMobile": false, "hasTouch": false, "javaScriptEnabled": true, "offline": false, "hideRfBrowser": false}</msg>
<msg timestamp="20210820 16:01:04.149" level="INFO">Successfully created context with  options:
{"acceptDownloads": false, "ignoreHTTPSErrors": false, "bypassCSP": false, "viewport": {"height": 768, "width": 1366}, "deviceScaleFactor": 1, "isMobile": false, "hasTouch": false, "javaScriptEnabled": true, "offline": false, "hideRfBrowser": false}</msg>
<status status="PASS" starttime="20210820 16:01:04.130" endtime="20210820 16:01:04.149"/>
</kw>
<kw name="New Page" library="Browser">
<arg>https://zak-dashboard.stg.mimic.com.br/login</arg>
<tag>BrowserControl</tag>
<tag>Setter</tag>
<doc>Open a new Page. A Page is the Playwright equivalent to a tab.
See `Browser, Context and Page` for more information about Page concept.
Returns a stable identifier for the created page.</doc>
<msg timestamp="20210820 16:01:05.320" level="INFO">Successfully initialized new page object and opened url: https://zak-dashboard.stg.mimic.com.br/login</msg>
<status status="PASS" starttime="20210820 16:01:04.150" endtime="20210820 16:01:05.320"/>
</kw>
<kw name="Get Text" library="Browser">
<arg>h1</arg>
<arg>contains</arg>
<arg>Gerenciamento de restaurantes</arg>
<tag>Assertion</tag>
<tag>Getter</tag>
<tag>PageContent</tag>
<doc>Returns text attribute of the element found by ``selector``.
See the `Finding elements` section for details about the selectors.</doc>
<status status="PASS" starttime="20210820 16:01:05.320" endtime="20210820 16:01:05.374"/>
</kw>
<status status="PASS" starttime="20210820 16:01:03.772" endtime="20210820 16:01:05.374"/>
</kw>
<kw name="Start Session" library="base">
<kw name="New Browser" library="Browser">
<arg>chromium</arg>
<arg>headless=false</arg>
<tag>BrowserControl</tag>
<tag>Setter</tag>
<doc>Create a new playwright Browser with specified options.
See `Browser, Context and Page` for more information about Browser and related concepts.</doc>
<msg timestamp="20210820 16:01:05.375" level="INFO">{"browser": "chromium", "headless": false, "handleSIGINT": true, "handleSIGTERM": true, "handleSIGHUP": true, "timeout": 30000.0, "devtools": false, "slowMo": 0.0}</msg>
<msg timestamp="20210820 16:01:05.705" level="INFO">Successfully created browser with options: {"browser":"chromium","headless":false,"handleSIGINT":true,"handleSIGTERM":true,"handleSIGHUP":true,"timeout":30000,"devtools":false,"slowMo":0}</msg>
<status status="PASS" starttime="20210820 16:01:05.375" endtime="20210820 16:01:05.705"/>
</kw>
<kw name="New Context" library="Browser">
<arg>viewport={'width': 1366, 'height': 768}</arg>
<tag>BrowserControl</tag>
<tag>Setter</tag>
<doc>Create a new BrowserContext with specified options.
See `Browser, Context and Page` for more information about BrowserContext.</doc>
<msg timestamp="20210820 16:01:05.706" level="INFO">{"acceptDownloads": false, "ignoreHTTPSErrors": false, "bypassCSP": false, "viewport": {"height": 768, "width": 1366}, "deviceScaleFactor": 1.0, "isMobile": false, "hasTouch": false, "javaScriptEnabled": true, "offline": false, "hideRfBrowser": false}</msg>
<msg timestamp="20210820 16:01:05.725" level="INFO">Successfully created context with  options:
{"acceptDownloads": false, "ignoreHTTPSErrors": false, "bypassCSP": false, "viewport": {"height": 768, "width": 1366}, "deviceScaleFactor": 1, "isMobile": false, "hasTouch": false, "javaScriptEnabled": true, "offline": false, "hideRfBrowser": false}</msg>
<status status="PASS" starttime="20210820 16:01:05.705" endtime="20210820 16:01:05.725"/>
</kw>
<kw name="New Page" library="Browser">
<arg>https://zak-dashboard.stg.mimic.com.br/login</arg>
<tag>BrowserControl</tag>
<tag>Setter</tag>
<doc>Open a new Page. A Page is the Playwright equivalent to a tab.
See `Browser, Context and Page` for more information about Page concept.
Returns a stable identifier for the created page.</doc>
<msg timestamp="20210820 16:01:06.935" level="INFO">Successfully initialized new page object and opened url: https://zak-dashboard.stg.mimic.com.br/login</msg>
<status status="PASS" starttime="20210820 16:01:05.726" endtime="20210820 16:01:06.936"/>
</kw>
<kw name="Get Text" library="Browser">
<arg>h1</arg>
<arg>contains</arg>
<arg>Gerenciamento de restaurantes</arg>
<tag>Assertion</tag>
<tag>Getter</tag>
<tag>PageContent</tag>
<doc>Returns text attribute of the element found by ``selector``.
See the `Finding elements` section for details about the selectors.</doc>
<status status="PASS" starttime="20210820 16:01:06.936" endtime="20210820 16:01:06.980"/>
</kw>
<status status="PASS" starttime="20210820 16:01:05.375" endtime="20210820 16:01:06.981"/>
</kw>
<kw name="Validar o cadastro de grupo fiscal da organização" library="source">
<kw name="Fill Text" library="Browser">
<arg>id=groupName</arg>
<arg>${groupName}</arg>
<tag>PageContent</tag>
<tag>Setter</tag>
<doc>Clears and fills the given ``text`` into the text field found by ``selector``.</doc>
<msg timestamp="20210820 16:01:06.982" level="INFO">Fills the text 'outback' in the given field.</msg>
<status status="PASS" starttime="20210820 16:01:06.981" endtime="20210820 16:01:07.020"/>
</kw>
<kw name="Fill Text" library="Browser">
<arg>id=username</arg>
<arg>${username}</arg>
<tag>PageContent</tag>
<tag>Setter</tag>
<doc>Clears and fills the given ``text`` into the text field found by ``selector``.</doc>
<msg timestamp="20210820 16:01:07.021" level="INFO">Fills the text 'quality' in the given field.</msg>
<status status="PASS" starttime="20210820 16:01:07.020" endtime="20210820 16:01:07.046"/>
</kw>
<kw name="Fill Text" library="Browser">
<arg>id=password</arg>
<arg>${password}</arg>
<tag>PageContent</tag>
<tag>Setter</tag>
<doc>Clears and fills the given ``text`` into the text field found by ``selector``.</doc>
<msg timestamp="20210820 16:01:07.046" level="INFO">Fills the text 'qa1234' in the given field.</msg>
<status status="PASS" starttime="20210820 16:01:07.046" endtime="20210820 16:01:07.070"/>
</kw>
<kw name="Click" library="Browser">
<arg>id=submitButton</arg>
<tag>PageContent</tag>
<tag>Setter</tag>
<doc>Simulates mouse click on the element found by ``selector``.</doc>
<status status="PASS" starttime="20210820 16:01:07.070" endtime="20210820 16:01:07.153"/>
</kw>
<kw name="Click" library="Browser">
<arg>text=Outback</arg>
<tag>PageContent</tag>
<tag>Setter</tag>
<doc>Simulates mouse click on the element found by ``selector``.</doc>
<status status="PASS" starttime="20210820 16:01:07.153" endtime="20210820 16:01:08.023"/>
</kw>
<kw name="Click" library="Browser">
<arg>text=Zak</arg>
<tag>PageContent</tag>
<tag>Setter</tag>
<doc>Simulates mouse click on the element found by ``selector``.</doc>
<status status="PASS" starttime="20210820 16:01:08.024" endtime="20210820 16:01:08.440"/>
</kw>
<kw name="Sleep" library="BuiltIn">
<arg>2</arg>
<doc>Pauses the test executed for the given time.</doc>
<msg timestamp="20210820 16:01:10.450" level="INFO">Slept 2 seconds</msg>
<status status="PASS" starttime="20210820 16:01:08.441" endtime="20210820 16:01:10.450"/>
</kw>
<kw name="Click" library="Browser">
<arg>text=ORGANIZAÇÃO</arg>
<tag>PageContent</tag>
<tag>Setter</tag>
<doc>Simulates mouse click on the element found by ``selector``.</doc>
<status status="PASS" starttime="20210820 16:01:10.450" endtime="20210820 16:01:10.517"/>
</kw>
<kw name="Click" library="Browser">
<arg>text=Cardápio</arg>
<tag>PageContent</tag>
<tag>Setter</tag>
<doc>Simulates mouse click on the element found by ``selector``.</doc>
<status status="PASS" starttime="20210820 16:01:10.517" endtime="20210820 16:01:10.579"/>
</kw>
<kw name="Click" library="Browser">
<arg>text=Grupo Fiscal</arg>
<tag>PageContent</tag>
<tag>Setter</tag>
<doc>Simulates mouse click on the element found by ``selector``.</doc>
<status status="PASS" starttime="20210820 16:01:10.580" endtime="20210820 16:01:10.682"/>
</kw>
<kw name="Click" library="Browser">
<arg>text=Criar Grupo Fiscal</arg>
<tag>PageContent</tag>
<tag>Setter</tag>
<doc>Simulates mouse click on the element found by ``selector``.</doc>
<status status="PASS" starttime="20210820 16:01:10.682" endtime="20210820 16:01:11.633"/>
</kw>
<kw name="Fill Text" library="Browser">
<arg>xpath=//span[text()="Nome do Grupo Fiscal"]</arg>
<arg>Teste de grupo fiscal do Zak</arg>
<tag>PageContent</tag>
<tag>Setter</tag>
<doc>Clears and fills the given ``text`` into the text field found by ``selector``.</doc>
<msg timestamp="20210820 16:01:11.634" level="INFO">Fills the text 'Teste de grupo fiscal do Zak' in the given field.</msg>
<status status="PASS" starttime="20210820 16:01:11.633" endtime="20210820 16:01:12.263"/>
</kw>
<kw name="Fill Text" library="Browser">
<arg>xpath=//span[text()="CFOP"]</arg>
<arg>5104</arg>
<tag>PageContent</tag>
<tag>Setter</tag>
<doc>Clears and fills the given ``text`` into the text field found by ``selector``.</doc>
<msg timestamp="20210820 16:01:12.264" level="INFO">Fills the text '5104' in the given field.</msg>
<status status="PASS" starttime="20210820 16:01:12.264" endtime="20210820 16:01:12.300"/>
</kw>
<kw name="Fill Text" library="Browser">
<arg>id=cstIcms</arg>
<arg>40</arg>
<tag>PageContent</tag>
<tag>Setter</tag>
<doc>Clears and fills the given ``text`` into the text field found by ``selector``.</doc>
<msg timestamp="20210820 16:01:12.300" level="INFO">Fills the text '40' in the given field.</msg>
<status status="PASS" starttime="20210820 16:01:12.300" endtime="20210820 16:01:12.335"/>
</kw>
<kw name="Fill Text" library="Browser">
<arg>xpath=//span[text()="CSOSN"]</arg>
<arg>500</arg>
<tag>PageContent</tag>
<tag>Setter</tag>
<doc>Clears and fills the given ``text`` into the text field found by ``selector``.</doc>
<msg timestamp="20210820 16:01:12.335" level="INFO">Fills the text '500' in the given field.</msg>
<status status="PASS" starttime="20210820 16:01:12.335" endtime="20210820 16:01:12.372"/>
</kw>
<kw name="Fill Text" library="Browser">
<arg>id=aliquotaPercIcms</arg>
<arg>3</arg>
<tag>PageContent</tag>
<tag>Setter</tag>
<doc>Clears and fills the given ``text`` into the text field found by ``selector``.</doc>
<msg timestamp="20210820 16:01:12.372" level="INFO">Fills the text '3' in the given field.</msg>
<status status="PASS" starttime="20210820 16:01:12.372" endtime="20210820 16:01:12.405"/>
</kw>
<kw name="Click" library="Browser">
<arg>id=icmsOrigin</arg>
<tag>PageContent</tag>
<tag>Setter</tag>
<doc>Simulates mouse click on the element found by ``selector``.</doc>
<status status="PASS" starttime="20210820 16:01:12.405" endtime="20210820 16:01:12.492"/>
</kw>
<kw name="Click" library="Browser">
<arg>xpath=//li[contains(text(),'0 - Nacional')]</arg>
<tag>PageContent</tag>
<tag>Setter</tag>
<doc>Simulates mouse click on the element found by ``selector``.</doc>
<status status="PASS" starttime="20210820 16:01:12.492" endtime="20210820 16:01:12.782"/>
</kw>
<kw name="Fill Text" library="Browser">
<arg>id=cstPis</arg>
<arg>02</arg>
<tag>PageContent</tag>
<tag>Setter</tag>
<doc>Clears and fills the given ``text`` into the text field found by ``selector``.</doc>
<msg timestamp="20210820 16:01:12.783" level="INFO">Fills the text '02' in the given field.</msg>
<status status="PASS" starttime="20210820 16:01:12.783" endtime="20210820 16:01:12.830"/>
</kw>
<kw name="Fill Text" library="Browser">
<arg>id=aliquotaPercPis</arg>
<arg>3</arg>
<tag>PageContent</tag>
<tag>Setter</tag>
<doc>Clears and fills the given ``text`` into the text field found by ``selector``.</doc>
<msg timestamp="20210820 16:01:12.831" level="INFO">Fills the text '3' in the given field.</msg>
<status status="PASS" starttime="20210820 16:01:12.831" endtime="20210820 16:01:12.867"/>
</kw>
<kw name="Fill Text" library="Browser">
<arg>id=cstCofins</arg>
<arg>01</arg>
<tag>PageContent</tag>
<tag>Setter</tag>
<doc>Clears and fills the given ``text`` into the text field found by ``selector``.</doc>
<msg timestamp="20210820 16:01:12.867" level="INFO">Fills the text '01' in the given field.</msg>
<status status="PASS" starttime="20210820 16:01:12.867" endtime="20210820 16:01:12.906"/>
</kw>
<kw name="Fill Text" library="Browser">
<arg>id=aliquotaPercCofins</arg>
<arg>2</arg>
<tag>PageContent</tag>
<tag>Setter</tag>
<doc>Clears and fills the given ``text`` into the text field found by ``selector``.</doc>
<msg timestamp="20210820 16:01:12.906" level="INFO">Fills the text '2' in the given field.</msg>
<status status="PASS" starttime="20210820 16:01:12.906" endtime="20210820 16:01:12.948"/>
</kw>
<kw name="Click" library="Browser">
<arg>text=SALVAR</arg>
<tag>PageContent</tag>
<tag>Setter</tag>
<doc>Simulates mouse click on the element found by ``selector``.</doc>
<status status="PASS" starttime="20210820 16:01:12.948" endtime="20210820 16:01:13.034"/>
</kw>
<status status="PASS" starttime="20210820 16:01:06.981" endtime="20210820 16:01:13.034"/>
</kw>
<kw name="Take Screenshot" library="Browser" type="TEARDOWN">
<tag>PageContent</tag>
<doc>Takes a screenshot of the current window and saves it.</doc>
<msg timestamp="20210820 16:01:13.248" level="INFO" html="true">&lt;/td&gt;&lt;/tr&gt;&lt;tr&gt;&lt;td colspan="3"&gt;&lt;a href="browser/screenshot/robotframework-browser-screenshot-1.png"&gt;&lt;img src="browser/screenshot/robotframework-browser-screenshot-1.png" width="800px"&gt;&lt;/a&gt;</msg>
<status status="PASS" starttime="20210820 16:01:13.035" endtime="20210820 16:01:13.248"/>
</kw>
<status status="PASS" starttime="20210820 16:01:03.769" endtime="20210820 16:01:13.249"/>
</test>
<status status="PASS" starttime="20210820 16:01:03.000" endtime="20210820 16:01:13.267"/>
</suite>
<suite id="s1-s2" name="Search-Gf" source="c:\Tools\Dashboard\Grupo Fiscal\tests\search-gf.robot">
<test id="s1-s2-t1" name="Procurar pelo grupo fiscal criado">
<kw name="Start Session" library="base" type="SETUP">
<kw name="New Browser" library="Browser">
<arg>chromium</arg>
<arg>headless=false</arg>
<tag>BrowserControl</tag>
<tag>Setter</tag>
<doc>Create a new playwright Browser with specified options.
See `Browser, Context and Page` for more information about Browser and related concepts.</doc>
<msg timestamp="20210820 16:01:13.300" level="INFO">{"browser": "chromium", "headless": false, "handleSIGINT": true, "handleSIGTERM": true, "handleSIGHUP": true, "timeout": 30000.0, "devtools": false, "slowMo": 0.0}</msg>
<msg timestamp="20210820 16:01:13.669" level="INFO">Successfully created browser with options: {"browser":"chromium","headless":false,"handleSIGINT":true,"handleSIGTERM":true,"handleSIGHUP":true,"timeout":30000,"devtools":false,"slowMo":0}</msg>
<status status="PASS" starttime="20210820 16:01:13.300" endtime="20210820 16:01:13.670"/>
</kw>
<kw name="New Context" library="Browser">
<arg>viewport={'width': 1366, 'height': 768}</arg>
<tag>BrowserControl</tag>
<tag>Setter</tag>
<doc>Create a new BrowserContext with specified options.
See `Browser, Context and Page` for more information about BrowserContext.</doc>
<msg timestamp="20210820 16:01:13.671" level="INFO">{"acceptDownloads": false, "ignoreHTTPSErrors": false, "bypassCSP": false, "viewport": {"height": 768, "width": 1366}, "deviceScaleFactor": 1.0, "isMobile": false, "hasTouch": false, "javaScriptEnabled": true, "offline": false, "hideRfBrowser": false}</msg>
<msg timestamp="20210820 16:01:13.684" level="INFO">Successfully created context with  options:
{"acceptDownloads": false, "ignoreHTTPSErrors": false, "bypassCSP": false, "viewport": {"height": 768, "width": 1366}, "deviceScaleFactor": 1, "isMobile": false, "hasTouch": false, "javaScriptEnabled": true, "offline": false, "hideRfBrowser": false}</msg>
<status status="PASS" starttime="20210820 16:01:13.670" endtime="20210820 16:01:13.684"/>
</kw>
<kw name="New Page" library="Browser">
<arg>https://zak-dashboard.stg.mimic.com.br/login</arg>
<tag>BrowserControl</tag>
<tag>Setter</tag>
<doc>Open a new Page. A Page is the Playwright equivalent to a tab.
See `Browser, Context and Page` for more information about Page concept.
Returns a stable identifier for the created page.</doc>
<msg timestamp="20210820 16:01:15.254" level="INFO">Successfully initialized new page object and opened url: https://zak-dashboard.stg.mimic.com.br/login</msg>
<status status="PASS" starttime="20210820 16:01:13.685" endtime="20210820 16:01:15.255"/>
</kw>
<kw name="Get Text" library="Browser">
<arg>h1</arg>
<arg>contains</arg>
<arg>Gerenciamento de restaurantes</arg>
<tag>Assertion</tag>
<tag>Getter</tag>
<tag>PageContent</tag>
<doc>Returns text attribute of the element found by ``selector``.
See the `Finding elements` section for details about the selectors.</doc>
<status status="PASS" starttime="20210820 16:01:15.255" endtime="20210820 16:01:15.311"/>
</kw>
<status status="PASS" starttime="20210820 16:01:13.300" endtime="20210820 16:01:15.311"/>
</kw>
<kw name="Start Session" library="base">
<kw name="New Browser" library="Browser">
<arg>chromium</arg>
<arg>headless=false</arg>
<tag>BrowserControl</tag>
<tag>Setter</tag>
<doc>Create a new playwright Browser with specified options.
See `Browser, Context and Page` for more information about Browser and related concepts.</doc>
<msg timestamp="20210820 16:01:15.312" level="INFO">{"browser": "chromium", "headless": false, "handleSIGINT": true, "handleSIGTERM": true, "handleSIGHUP": true, "timeout": 30000.0, "devtools": false, "slowMo": 0.0}</msg>
<msg timestamp="20210820 16:01:15.791" level="INFO">Successfully created browser with options: {"browser":"chromium","headless":false,"handleSIGINT":true,"handleSIGTERM":true,"handleSIGHUP":true,"timeout":30000,"devtools":false,"slowMo":0}</msg>
<status status="PASS" starttime="20210820 16:01:15.312" endtime="20210820 16:01:15.792"/>
</kw>
<kw name="New Context" library="Browser">
<arg>viewport={'width': 1366, 'height': 768}</arg>
<tag>BrowserControl</tag>
<tag>Setter</tag>
<doc>Create a new BrowserContext with specified options.
See `Browser, Context and Page` for more information about BrowserContext.</doc>
<msg timestamp="20210820 16:01:15.793" level="INFO">{"acceptDownloads": false, "ignoreHTTPSErrors": false, "bypassCSP": false, "viewport": {"height": 768, "width": 1366}, "deviceScaleFactor": 1.0, "isMobile": false, "hasTouch": false, "javaScriptEnabled": true, "offline": false, "hideRfBrowser": false}</msg>
<msg timestamp="20210820 16:01:15.816" level="INFO">Successfully created context with  options:
{"acceptDownloads": false, "ignoreHTTPSErrors": false, "bypassCSP": false, "viewport": {"height": 768, "width": 1366}, "deviceScaleFactor": 1, "isMobile": false, "hasTouch": false, "javaScriptEnabled": true, "offline": false, "hideRfBrowser": false}</msg>
<status status="PASS" starttime="20210820 16:01:15.792" endtime="20210820 16:01:15.817"/>
</kw>
<kw name="New Page" library="Browser">
<arg>https://zak-dashboard.stg.mimic.com.br/login</arg>
<tag>BrowserControl</tag>
<tag>Setter</tag>
<doc>Open a new Page. A Page is the Playwright equivalent to a tab.
See `Browser, Context and Page` for more information about Page concept.
Returns a stable identifier for the created page.</doc>
<msg timestamp="20210820 16:01:17.603" level="INFO">Successfully initialized new page object and opened url: https://zak-dashboard.stg.mimic.com.br/login</msg>
<status status="PASS" starttime="20210820 16:01:15.817" endtime="20210820 16:01:17.603"/>
</kw>
<kw name="Get Text" library="Browser">
<arg>h1</arg>
<arg>contains</arg>
<arg>Gerenciamento de restaurantes</arg>
<tag>Assertion</tag>
<tag>Getter</tag>
<tag>PageContent</tag>
<doc>Returns text attribute of the element found by ``selector``.
See the `Finding elements` section for details about the selectors.</doc>
<status status="PASS" starttime="20210820 16:01:17.603" endtime="20210820 16:01:17.655"/>
</kw>
<status status="PASS" starttime="20210820 16:01:15.311" endtime="20210820 16:01:17.655"/>
</kw>
<kw name="Validar o search do grupo fiscal criado" library="source">
<kw name="Fill Text" library="Browser">
<arg>id=groupName</arg>
<arg>${groupName}</arg>
<tag>PageContent</tag>
<tag>Setter</tag>
<doc>Clears and fills the given ``text`` into the text field found by ``selector``.</doc>
<msg timestamp="20210820 16:01:17.656" level="INFO">Fills the text 'outback' in the given field.</msg>
<status status="PASS" starttime="20210820 16:01:17.656" endtime="20210820 16:01:17.685"/>
</kw>
<kw name="Fill Text" library="Browser">
<arg>id=username</arg>
<arg>${username}</arg>
<tag>PageContent</tag>
<tag>Setter</tag>
<doc>Clears and fills the given ``text`` into the text field found by ``selector``.</doc>
<msg timestamp="20210820 16:01:17.686" level="INFO">Fills the text 'quality' in the given field.</msg>
<status status="PASS" starttime="20210820 16:01:17.686" endtime="20210820 16:01:17.717"/>
</kw>
<kw name="Fill Text" library="Browser">
<arg>id=password</arg>
<arg>${password}</arg>
<tag>PageContent</tag>
<tag>Setter</tag>
<doc>Clears and fills the given ``text`` into the text field found by ``selector``.</doc>
<msg timestamp="20210820 16:01:17.718" level="INFO">Fills the text 'qa1234' in the given field.</msg>
<status status="PASS" starttime="20210820 16:01:17.717" endtime="20210820 16:01:17.748"/>
</kw>
<kw name="Click" library="Browser">
<arg>id=submitButton</arg>
<tag>PageContent</tag>
<tag>Setter</tag>
<doc>Simulates mouse click on the element found by ``selector``.</doc>
<status status="PASS" starttime="20210820 16:01:17.749" endtime="20210820 16:01:17.846"/>
</kw>
<kw name="Click" library="Browser">
<arg>text=Outback</arg>
<tag>PageContent</tag>
<tag>Setter</tag>
<doc>Simulates mouse click on the element found by ``selector``.</doc>
<status status="PASS" starttime="20210820 16:01:17.847" endtime="20210820 16:01:18.693"/>
</kw>
<kw name="Click" library="Browser">
<arg>text=Zak</arg>
<tag>PageContent</tag>
<tag>Setter</tag>
<doc>Simulates mouse click on the element found by ``selector``.</doc>
<status status="PASS" starttime="20210820 16:01:18.693" endtime="20210820 16:01:19.136"/>
</kw>
<kw name="Sleep" library="BuiltIn">
<arg>2</arg>
<doc>Pauses the test executed for the given time.</doc>
<msg timestamp="20210820 16:01:21.150" level="INFO">Slept 2 seconds</msg>
<status status="PASS" starttime="20210820 16:01:19.136" endtime="20210820 16:01:21.150"/>
</kw>
<kw name="Click" library="Browser">
<arg>text=ORGANIZAÇÃO</arg>
<tag>PageContent</tag>
<tag>Setter</tag>
<doc>Simulates mouse click on the element found by ``selector``.</doc>
<status status="PASS" starttime="20210820 16:01:21.150" endtime="20210820 16:01:21.210"/>
</kw>
<kw name="Click" library="Browser">
<arg>text=Cardápio</arg>
<tag>PageContent</tag>
<tag>Setter</tag>
<doc>Simulates mouse click on the element found by ``selector``.</doc>
<status status="PASS" starttime="20210820 16:01:21.211" endtime="20210820 16:01:21.273"/>
</kw>
<kw name="Click" library="Browser">
<arg>text=Grupo Fiscal</arg>
<tag>PageContent</tag>
<tag>Setter</tag>
<doc>Simulates mouse click on the element found by ``selector``.</doc>
<status status="PASS" starttime="20210820 16:01:21.273" endtime="20210820 16:01:21.378"/>
</kw>
<kw name="Fill Text" library="Browser">
<arg>css=input[placeholder="Procurando algo?"]</arg>
<arg>Teste de grupo fiscal do Zak</arg>
<tag>PageContent</tag>
<tag>Setter</tag>
<doc>Clears and fills the given ``text`` into the text field found by ``selector``.</doc>
<msg timestamp="20210820 16:01:21.379" level="INFO">Fills the text 'Teste de grupo fiscal do Zak' in the given field.</msg>
<status status="PASS" starttime="20210820 16:01:21.379" endtime="20210820 16:01:21.427"/>
</kw>
<status status="PASS" starttime="20210820 16:01:17.655" endtime="20210820 16:01:21.427"/>
</kw>
<kw name="Take Screenshot" library="Browser" type="TEARDOWN">
<tag>PageContent</tag>
<doc>Takes a screenshot of the current window and saves it.</doc>
<msg timestamp="20210820 16:01:21.662" level="INFO" html="true">&lt;/td&gt;&lt;/tr&gt;&lt;tr&gt;&lt;td colspan="3"&gt;&lt;a href="browser/screenshot/robotframework-browser-screenshot-2.png"&gt;&lt;img src="browser/screenshot/robotframework-browser-screenshot-2.png" width="800px"&gt;&lt;/a&gt;</msg>
<status status="PASS" starttime="20210820 16:01:21.428" endtime="20210820 16:01:21.662"/>
</kw>
<status status="PASS" starttime="20210820 16:01:13.291" endtime="20210820 16:01:21.663"/>
</test>
<status status="PASS" starttime="20210820 16:01:13.279" endtime="20210820 16:01:21.675"/>
</suite>
<status status="PASS" starttime="20210820 16:01:02.975" endtime="20210820 16:01:21.687"/>
</suite>
<statistics>
<total>
<stat pass="2" fail="0" skip="0">All Tests</stat>
</total>
<tag>
</tag>
<suite>
<stat pass="2" fail="0" skip="0" id="s1" name="Tests">Tests</stat>
<stat pass="1" fail="0" skip="0" id="s1-s1" name="Grupo-Fiscal">Tests.Grupo-Fiscal</stat>
<stat pass="1" fail="0" skip="0" id="s1-s2" name="Search-Gf">Tests.Search-Gf</stat>
</suite>
</statistics>
<errors>
</errors>
</robot>
