{"level":30,"time":"2021-08-20T19:01:03.627Z","pid":22140,"hostname":"DESKTOP-085PCSR","msg":"Listening on 62377"}
{"level":30,"time":"2021-08-20T19:01:04.134Z","pid":22140,"hostname":"DESKTOP-085PCSR","msg":"currentBrowser: [object Object]"}
{"level":30,"time":"2021-08-20T19:01:04.147Z","pid":22140,"hostname":"DESKTOP-085PCSR","msg":"Changed active context"}
{"level":30,"time":"2021-08-20T19:01:04.152Z","pid":22140,"hostname":"DESKTOP-085PCSR","msg":"currentBrowser: [object Object]"}
{"level":30,"time":"2021-08-20T19:01:04.303Z","pid":22140,"hostname":"DESKTOP-085PCSR","msg":"Video path: undefined"}
{"level":30,"time":"2021-08-20T19:01:04.304Z","pid":22140,"hostname":"DESKTOP-085PCSR","msg":"Changed active page"}
{"level":30,"time":"2021-08-20T19:01:05.372Z","pid":22140,"hostname":"DESKTOP-085PCSR","msg":"Retrieved text for element h1 containing Gerenciamento de restaurantes"}
{"level":30,"time":"2021-08-20T19:01:05.708Z","pid":22140,"hostname":"DESKTOP-085PCSR","msg":"currentBrowser: [object Object]"}
{"level":30,"time":"2021-08-20T19:01:05.724Z","pid":22140,"hostname":"DESKTOP-085PCSR","msg":"Changed active context"}
{"level":30,"time":"2021-08-20T19:01:05.727Z","pid":22140,"hostname":"DESKTOP-085PCSR","msg":"currentBrowser: [object Object]"}
{"level":30,"time":"2021-08-20T19:01:05.893Z","pid":22140,"hostname":"DESKTOP-085PCSR","msg":"Video path: undefined"}
{"level":30,"time":"2021-08-20T19:01:05.893Z","pid":22140,"hostname":"DESKTOP-085PCSR","msg":"Changed active page"}
{"level":30,"time":"2021-08-20T19:01:06.980Z","pid":22140,"hostname":"DESKTOP-085PCSR","msg":"Retrieved text for element h1 containing Gerenciamento de restaurantes"}
================= Original suppressed error =================
Error: No context for id context=a1bc0eae-4b77-4eba-bd6a-f818318e8d3a. Open contexts: context=bae3da71-8671-4791-8dab-1a9128eea62b
    at c:\users\fvastres\appdata\local\programs\python\python39\lib\site-packages\Browser\wrapper\index.js:26397:23
    at step (c:\users\fvastres\appdata\local\programs\python\python39\lib\site-packages\Browser\wrapper\index.js:25707:23)
    at Object.next (c:\users\fvastres\appdata\local\programs\python\python39\lib\site-packages\Browser\wrapper\index.js:25688:53)
    at c:\users\fvastres\appdata\local\programs\python\python39\lib\site-packages\Browser\wrapper\index.js:25682:71
    at new Promise (<anonymous>)
    at __webpack_modules__../node/playwright-wrapper/playwright-state.ts.__awaiter (c:\users\fvastres\appdata\local\programs\python\python39\lib\site-packages\Browser\wrapper\index.js:25678:12)
    at _switchContext (c:\users\fvastres\appdata\local\programs\python\python39\lib\site-packages\Browser\wrapper\index.js:26385:12)
    at Object.<anonymous> (c:\users\fvastres\appdata\local\programs\python\python39\lib\site-packages\Browser\wrapper\index.js:26482:42)
    at step (c:\users\fvastres\appdata\local\programs\python\python39\lib\site-packages\Browser\wrapper\index.js:25707:23)
    at Object.next (c:\users\fvastres\appdata\local\programs\python\python39\lib\site-packages\Browser\wrapper\index.js:25688:53)
=============================================================
================= Original suppressed error =================
Error: No context for id context=a1bc0eae-4b77-4eba-bd6a-f818318e8d3a. Open contexts: context=bae3da71-8671-4791-8dab-1a9128eea62b
    at c:\users\fvastres\appdata\local\programs\python\python39\lib\site-packages\Browser\wrapper\index.js:26397:23
    at step (c:\users\fvastres\appdata\local\programs\python\python39\lib\site-packages\Browser\wrapper\index.js:25707:23)
    at Object.next (c:\users\fvastres\appdata\local\programs\python\python39\lib\site-packages\Browser\wrapper\index.js:25688:53)
    at c:\users\fvastres\appdata\local\programs\python\python39\lib\site-packages\Browser\wrapper\index.js:25682:71
    at new Promise (<anonymous>)
    at __webpack_modules__../node/playwright-wrapper/playwright-state.ts.__awaiter (c:\users\fvastres\appdata\local\programs\python\python39\lib\site-packages\Browser\wrapper\index.js:25678:12)
    at _switchContext (c:\users\fvastres\appdata\local\programs\python\python39\lib\site-packages\Browser\wrapper\index.js:26385:12)
    at Object.<anonymous> (c:\users\fvastres\appdata\local\programs\python\python39\lib\site-packages\Browser\wrapper\index.js:26482:42)
    at step (c:\users\fvastres\appdata\local\programs\python\python39\lib\site-packages\Browser\wrapper\index.js:25707:23)
    at Object.next (c:\users\fvastres\appdata\local\programs\python\python39\lib\site-packages\Browser\wrapper\index.js:25688:53)
=============================================================
{"level":30,"time":"2021-08-20T19:01:13.672Z","pid":22140,"hostname":"DESKTOP-085PCSR","msg":"currentBrowser: [object Object]"}
{"level":30,"time":"2021-08-20T19:01:13.683Z","pid":22140,"hostname":"DESKTOP-085PCSR","msg":"Changed active context"}
{"level":30,"time":"2021-08-20T19:01:13.686Z","pid":22140,"hostname":"DESKTOP-085PCSR","msg":"currentBrowser: [object Object]"}
{"level":30,"time":"2021-08-20T19:01:13.847Z","pid":22140,"hostname":"DESKTOP-085PCSR","msg":"Video path: undefined"}
{"level":30,"time":"2021-08-20T19:01:13.847Z","pid":22140,"hostname":"DESKTOP-085PCSR","msg":"Changed active page"}
{"level":30,"time":"2021-08-20T19:01:15.309Z","pid":22140,"hostname":"DESKTOP-085PCSR","msg":"Retrieved text for element h1 containing Gerenciamento de restaurantes"}
{"level":30,"time":"2021-08-20T19:01:15.795Z","pid":22140,"hostname":"DESKTOP-085PCSR","msg":"currentBrowser: [object Object]"}
{"level":30,"time":"2021-08-20T19:01:15.814Z","pid":22140,"hostname":"DESKTOP-085PCSR","msg":"Changed active context"}
{"level":30,"time":"2021-08-20T19:01:15.819Z","pid":22140,"hostname":"DESKTOP-085PCSR","msg":"currentBrowser: [object Object]"}
{"level":30,"time":"2021-08-20T19:01:16.067Z","pid":22140,"hostname":"DESKTOP-085PCSR","msg":"Video path: undefined"}
{"level":30,"time":"2021-08-20T19:01:16.068Z","pid":22140,"hostname":"DESKTOP-085PCSR","msg":"Changed active page"}
{"level":30,"time":"2021-08-20T19:01:17.654Z","pid":22140,"hostname":"DESKTOP-085PCSR","msg":"Retrieved text for element h1 containing Gerenciamento de restaurantes"}
================= Original suppressed error =================
Error: No context for id context=5ef29059-4144-4063-b470-3b888b2f967c. Open contexts: context=1a11ad18-fd25-4809-a7d0-4724ca7022e2
    at c:\users\fvastres\appdata\local\programs\python\python39\lib\site-packages\Browser\wrapper\index.js:26397:23
    at step (c:\users\fvastres\appdata\local\programs\python\python39\lib\site-packages\Browser\wrapper\index.js:25707:23)
    at Object.next (c:\users\fvastres\appdata\local\programs\python\python39\lib\site-packages\Browser\wrapper\index.js:25688:53)
    at c:\users\fvastres\appdata\local\programs\python\python39\lib\site-packages\Browser\wrapper\index.js:25682:71
    at new Promise (<anonymous>)
    at __webpack_modules__../node/playwright-wrapper/playwright-state.ts.__awaiter (c:\users\fvastres\appdata\local\programs\python\python39\lib\site-packages\Browser\wrapper\index.js:25678:12)
    at _switchContext (c:\users\fvastres\appdata\local\programs\python\python39\lib\site-packages\Browser\wrapper\index.js:26385:12)
    at Object.<anonymous> (c:\users\fvastres\appdata\local\programs\python\python39\lib\site-packages\Browser\wrapper\index.js:26482:42)
    at step (c:\users\fvastres\appdata\local\programs\python\python39\lib\site-packages\Browser\wrapper\index.js:25707:23)
    at Object.next (c:\users\fvastres\appdata\local\programs\python\python39\lib\site-packages\Browser\wrapper\index.js:25688:53)
=============================================================
================= Original suppressed error =================
Error: No context for id context=5ef29059-4144-4063-b470-3b888b2f967c. Open contexts: context=1a11ad18-fd25-4809-a7d0-4724ca7022e2
    at c:\users\fvastres\appdata\local\programs\python\python39\lib\site-packages\Browser\wrapper\index.js:26397:23
    at step (c:\users\fvastres\appdata\local\programs\python\python39\lib\site-packages\Browser\wrapper\index.js:25707:23)
    at Object.next (c:\users\fvastres\appdata\local\programs\python\python39\lib\site-packages\Browser\wrapper\index.js:25688:53)
    at c:\users\fvastres\appdata\local\programs\python\python39\lib\site-packages\Browser\wrapper\index.js:25682:71
    at new Promise (<anonymous>)
    at __webpack_modules__../node/playwright-wrapper/playwright-state.ts.__awaiter (c:\users\fvastres\appdata\local\programs\python\python39\lib\site-packages\Browser\wrapper\index.js:25678:12)
    at _switchContext (c:\users\fvastres\appdata\local\programs\python\python39\lib\site-packages\Browser\wrapper\index.js:26385:12)
    at Object.<anonymous> (c:\users\fvastres\appdata\local\programs\python\python39\lib\site-packages\Browser\wrapper\index.js:26482:42)
    at step (c:\users\fvastres\appdata\local\programs\python\python39\lib\site-packages\Browser\wrapper\index.js:25707:23)
    at Object.next (c:\users\fvastres\appdata\local\programs\python\python39\lib\site-packages\Browser\wrapper\index.js:25688:53)
=============================================================
